  502  git switch main
  503  git remote -e
  504  git remote -v
  505  git remote add upstream git@gitlab.com:redhat/research/mastering-git.git
  506  git remote -v
  507  git pull --rebase upstream
  508  git pull --rebase upstream main
  509  git push 
  510  git branch
  511  git switch -c class3-hw
  512  cd class3_homework/
  513  touch 514630.txt
  514  ls
  515  nano 514630.txt 
  516  git status
  517  git add 514630.txt 
  518  git commit -m "created the file for class3 homework"
  519  git log --graph --oneline
  520  git push
  521  git push --set-upstream origin class3-hw
  522  git remote -v
  523  history > 514630_commands.txt
