 2026  git log
 2027  git remote add upstream https://gitlab.com/redhat/research/mastering-git.git
 2029  git log
 2030  git checkout e80f434
 2031  git log
 2032  git branch
 2033  git branch hw03
 2034  git branch
 2035  git switch hw03
 2036  git log
 2037  git pull --rebase upstream main
 2038  git status
 2039  git push origin hw03
 2040  cd class3_homework/
 2041  ls
 2042  vim 520908.txt
 2043  git status
 2044  git add 520908.txt 
 2045  git commit -m "added uco.txt file"
 2046  git push origin hw03
 2047  git status
